<?xml version="1.0" encoding="utf-8"?>
<!-- Generator: Adobe Illustrator 24.2.1, SVG Export Plug-In . SVG Version: 6.00 Build 0)  -->
<svg version="1.1" id="Calque_1" xmlns="http://www.w3.org/2000/svg" xmlns:xlink="http://www.w3.org/1999/xlink" x="0px" y="0px"
	 viewBox="0 0 439 187.1" style="enable-background:new 0 0 439 187.1;" xml:space="preserve">
<style type="text/css">
	.st0{fill:none;}
	.st1{fill:#31126D;}
	.st2{fill:#E6E6E6;}
	.st3{opacity:0.74;}
	.st4{fill:url(#SVGID_1_);}
	.st5{fill:url(#SVGID_2_);}
	.st6{fill:url(#SVGID_3_);}
	.st7{fill:#0F0938;}
	.st8{font-family:'Brown-Bold';}
	.st9{font-size:40.2635px;}
	.st10{letter-spacing:8;}
	.st11{letter-spacing:9;}
	.st12{letter-spacing:6;}
	.st13{letter-spacing:7;}
</style>
<rect class="st0" width="297.4" height="187.1"/>
<polygon class="st1" points="86.9,46.8 46.5,70.1 87.1,93.5 127.6,70.2 "/>
<polygon class="st1" points="127.6,116.9 87.4,140.3 87.1,93.5 127.6,70.2 "/>
<polygon class="st1" points="46.8,116.8 46.5,70.1 87.1,93.5 87.4,140.3 "/>
<polygon class="st2" points="87,64.6 62,79 87.1,93.5 112.1,79.1 "/>
<polygon class="st2" points="112.1,107.9 87.3,122.4 87.1,93.5 112.1,79.1 "/>
<polygon class="st2" points="62.2,107.9 62,79 87.1,93.5 87.3,122.4 "/>
<g class="st3">
	
		<linearGradient id="SVGID_1_" gradientUnits="userSpaceOnUse" x1="87.08" y1="177.31" x2="87.08" y2="98.34" gradientTransform="matrix(1 0 0 -1 0 190)">
		<stop  offset="0" style="stop-color:#4A00FF"/>
		<stop  offset="1" style="stop-color:#FFEAF7"/>
	</linearGradient>
	<polygon class="st4" points="86.9,46.8 46.5,70.1 87.1,93.5 127.6,70.1 	"/>
	
		<linearGradient id="SVGID_2_" gradientUnits="userSpaceOnUse" x1="146.9213" y1="62.9123" x2="87.0413" y2="96.2023" gradientTransform="matrix(1 0 0 -1 0 190)">
		<stop  offset="0" style="stop-color:#4A00FF"/>
		<stop  offset="1" style="stop-color:#FFEAF7"/>
	</linearGradient>
	<polygon class="st5" points="127.6,116.9 87.4,140.2 87.1,93.5 127.6,70.1 	"/>
	
		<linearGradient id="SVGID_3_" gradientUnits="userSpaceOnUse" x1="26.6811" y1="61.788" x2="87.0711" y2="96.368" gradientTransform="matrix(1 0 0 -1 0 190)">
		<stop  offset="0" style="stop-color:#4A00FF"/>
		<stop  offset="1" style="stop-color:#FFEAF7"/>
	</linearGradient>
	<polygon class="st6" points="46.8,116.8 46.5,70.1 87.1,93.5 87.4,140.2 	"/>
</g>
<text transform="matrix(1 0 0 1 178.3436 105.5986)" class="st7 st8 st9 st10">N</text>
<text transform="matrix(1 0 0 1 217.8026 105.5986)" class="st7 st8 st9 st11">O</text>
<text transform="matrix(1 0 0 1 259.0721 105.5986)" class="st7 st8 st9 st10">CT</text>
<text transform="matrix(1 0 0 1 326.3123 105.5986)" class="st7 st8 st9 st12">U</text>
<text transform="matrix(1 0 0 1 363.1541 105.5986)" class="st7 st8 st9 st13">A</text>
</svg>
